Econometrics - Erasmus Uni Rotterdam
…
## Parsed with column specification:
## cols(
##   OBS = col_double(),
##   GC = col_double(),
##   PG = col_double(),
##   RI = col_double(),
##   RPN = col_double(),
##   RPT = col_double(),
##   RPU = col_double()
## )

exer44

## # A tibble: 30 x 7
##      OBS    GC      PG    RI   RPN     RPT    RPU
##    <dbl> <dbl>   <dbl> <dbl> <dbl>   <dbl>  <dbl>
##  1  1970  6.71 -0.101   2.94 0.312 -0.0974 -0.218
##  2  1971  6.77 -0.137   2.99 0.310 -0.0690 -0.205
##  3  1972  6.83 -0.157   3.03 0.269 -0.0617 -0.233
##  4  1973  6.85 -0.124   3.09 0.210 -0.112  -0.232
##  5  1974  6.70  0.0744  3.08 0.161 -0.194  -0.295
##  6  1975  6.73  0.0530  3.09 0.156 -0.213  -0.206
##  7  1976  6.78  0.0377  3.13 0.162 -0.174  -0.123
##  8  1977  6.81  0.0310  3.17 0.150 -0.192  -0.102
##  9  1978  6.82  0       3.21 0.151 -0.236  -0.156
## 10  1979  6.73  0.195   3.22 0.119 -0.279  -0.187
## #  with 20 more rows
…
